챗GPT 데이터 과학 - 19 데이터 과학 함수
…
19.3 데이터 마스킹

R에서의 데이터 마스킹(Data Masking)은 tidyverse 생태계에서 데이터 문법을 담당하는 dplyr 패키지에서 핵심적인 개념이다. 데이터 마스킹을 사용하면 데이터프레임 칼럼을 $, [[ ]]를 사용하지 않고도 칼럼명으로 직접 참조할 수 있어, 데이터를 조작하고 변환할 때 훨씬 직관적이고 가독성 높은 코드를 작성할 수 있다.

penguins 데이터프레임의 species를 데이터 마스킹 없이 조작하려면 penguins$species 혹은 penguins[['species']]와 같이 구문을 작성해야 하지만 데이터 마스킹을 사용하면 species 만으로 충분한다.

library(dplyr)
library(palmerpenguins)

# 데이터 마스킹을 사용하여 펭귄종(species)이 "Adelie"만 추출한다.
penguins %>% filter(species == "Adelie")

# A tibble: 152 × 8
   species island    bill_length_mm bill_depth_mm flipper_length_mm body_mass_g
   <fct>   <fct>              <dbl>         <dbl>             <int>       <int>
 1 Adelie  Torgersen           39.1          18.7               181        3750
 2 Adelie  Torgersen           39.5          17.4               186        3800
 3 Adelie  Torgersen           40.3          18                 195        3250
 4 Adelie  Torgersen           NA            NA                  NA          NA
 5 Adelie  Torgersen           36.7          19.3               193        3450
 6 Adelie  Torgersen           39.3          20.6               190        3650
 7 Adelie  Torgersen           38.9          17.8               181        3625
 8 Adelie  Torgersen           39.2          19.6               195        4675
 9 Adelie  Torgersen           34.1          18.1               193        3475
10 Adelie  Torgersen           42            20.2               190        4250
# ℹ 142 more rows
# ℹ 2 more variables: sex <fct>, year <int>

dplyr 함수의 데이터 마스킹은 비표준 평가 (Non-standard evaluation, NSE)라는 개념에 기반을 두는데, 표현식을 캡처하고 난 후 바로 바로 실행되지 않고 제공된 데이터의 맥락 내에서 평가가 이루어진다. 데이터 마스킹은 강력하며 깔끔한 구문을 제공하지만, 칼럼명과 충돌할 수 있는 환경의 변수 이름이 있을 때 예기치 않은 방식으로 동작한다. 모호한 상황이 발생할 때 항상 다음과 같은 방식으로 .data$column_name 함으로써 데이터 마스킹 재정의(Overriding)를 통해 명확히 한다.

species <- "Chinstrap"

penguins %>% 
  filter(.data$species == "Adelie")

# A tibble: 152 × 8
   species island    bill_length_mm bill_depth_mm flipper_length_mm body_mass_g
   <fct>   <fct>              <dbl>         <dbl>             <int>       <int>
 1 Adelie  Torgersen           39.1          18.7               181        3750
 2 Adelie  Torgersen           39.5          17.4               186        3800
 3 Adelie  Torgersen           40.3          18                 195        3250
 4 Adelie  Torgersen           NA            NA                  NA          NA
 5 Adelie  Torgersen           36.7          19.3               193        3450
 6 Adelie  Torgersen           39.3          20.6               190        3650
 7 Adelie  Torgersen           38.9          17.8               181        3625
 8 Adelie  Torgersen           39.2          19.6               195        4675
 9 Adelie  Torgersen           34.1          18.1               193        3475
10 Adelie  Torgersen           42            20.2               190        4250
# ℹ 142 more rows
# ℹ 2 more variables: sex <fct>, year <int>
…
