챗GPT 데이터 과학 - 11 표본 추출
…
11.2.4 층화추출법

층화추출법(Stratified sampling)은 모집단을 먼저 중복되지 않도록 층으로 나눈 다음 각 층에서 표본을 추출하는 방법으로, 필요에 따라 각 층을 다시 하위층으로 나누어 추출하는 다단계 층화 추출을 하기도 한다. dplyr 팩키지를 사용할 경우 slice_sample() 함수를 하위 모집단 그룹, 즉 층(strata)으로 나눠 group_by()로 묶은 후에 임의 복원 혹은 비복원 임의추출방법을 수행한다. 예를 들어, 원산지 국가를 기준으로 각 국가별로 3개 커피콩 품종을 추출하는 코드는 다음과 같다.

coffee_df %>% 
  group_by(coo) %>% 
  slice_sample(n = 3, replace = FALSE) %>% 
  arrange(coo)

# A tibble: 96 × 8
# Groups:   coo [37]
   total_cup_points species coo      farm_name     aroma  body balance sweetness
              <dbl> <chr>   <chr>    <chr>         <dbl> <dbl>   <dbl>     <dbl>
 1             83.2 Arabica Brazil   campo das fl…  7.75  7.58    7.58     10   
 2             84.9 Arabica Brazil   fazenda grot…  8     8       7.75     10   
 3             83.8 Arabica Brazil   rio verde      7.67  7.83    8.17      9.33
 4             83.3 Arabica Burundi  sogestal kay…  7.75  7.5     7.75     10   
 5             80.3 Arabica Burundi  <NA>           7.08  7.08    7.08     10   
 6             87.2 Arabica China    echo coffee    8.42  7.92    8        10   
 7             82.4 Arabica China    menglian gao…  7.67  7.42    7.42     10   
 8             78.7 Arabica China    alicia's farm  7     7.17    7.17      9.33
 9             84.2 Arabica Colombia <NA>           7.75  7.83    7.75     10   
10             82.9 Arabica Colombia <NA>           7.58  7.67    7.58     10   
# ℹ 86 more rows
…
